{
  "warnings": [
    {
      "file": "/Users/ci_user/builds/ewm3veLb/0/geopagos/apps/libraries/transaction-sdk-ios/ClientSDK/ClientSDK/Configurator/ReaderConfigurator.swift",
      "line": 11,
      "symbol": "ReaderConfigurator",
      "symbol_kind": "source.lang.swift.decl.class",
      "warning": "undocumented"
    },
    {
      "file": "/Users/ci_user/builds/ewm3veLb/0/geopagos/apps/libraries/transaction-sdk-ios/ClientSDK/ClientSDK/Configurator/ReaderConfiguratorDelegate.swift",
      "line": 11,
      "symbol": "ConfigurationRequiredCallback",
      "symbol_kind": "source.lang.swift.decl.typealias",
      "warning": "undocumented"
    },
    {
      "file": "/Users/ci_user/builds/ewm3veLb/0/geopagos/apps/libraries/transaction-sdk-ios/ClientSDK/ClientSDK/Configurator/ReaderConfiguratorDelegate.swift",
      "line": 13,
      "symbol": "ReaderConfiguratorDelegate",
      "symbol_kind": "source.lang.swift.decl.protocol",
      "warning": "undocumented"
    },
    {
      "file": "/Users/ci_user/builds/ewm3veLb/0/geopagos/apps/libraries/transaction-sdk-ios/ClientSDK/ClientSDK/Configurator/ReaderConfiguratorError.swift",
      "line": 33,
      "symbol": "ReaderConfiguratorInitializationError.missingInitialization(_:)",
      "symbol_kind": "source.lang.swift.decl.enumelement",
      "warning": "undocumented"
    },
    {
      "file": "/Users/ci_user/builds/ewm3veLb/0/geopagos/apps/libraries/transaction-sdk-ios/ClientSDK/ClientSDK/Configurator/ReaderConfiguratorFactory.swift",
      "line": 11,
      "symbol": "ReaderConfiguratorFactory",
      "symbol_kind": "source.lang.swift.decl.class",
      "warning": "undocumented"
    },
    {
      "file": "/Users/ci_user/builds/ewm3veLb/0/geopagos/apps/libraries/transaction-sdk-ios/ClientSDK/ClientSDK/Device/Device.swift",
      "line": 20,
      "symbol": "Device.device",
      "symbol_kind": "source.lang.swift.decl.var.instance",
      "warning": "undocumented"
    },
    {
      "file": "/Users/ci_user/builds/ewm3veLb/0/geopagos/apps/libraries/transaction-sdk-ios/ClientSDK/ClientSDK/Device/Device.swift",
      "line": 21,
      "symbol": "Device.id",
      "symbol_kind": "source.lang.swift.decl.var.instance",
      "warning": "undocumented"
    },
    {
      "file": "/Users/ci_user/builds/ewm3veLb/0/geopagos/apps/libraries/transaction-sdk-ios/ClientSDK/ClientSDK/Device/Device.swift",
      "line": 22,
      "symbol": "Device.name",
      "symbol_kind": "source.lang.swift.decl.var.instance",
      "warning": "undocumented"
    },
    {
      "file": "/Users/ci_user/builds/ewm3veLb/0/geopagos/apps/libraries/transaction-sdk-ios/ClientSDK/ClientSDK/Device/Device.swift",
      "line": 23,
      "symbol": "Device.type",
      "symbol_kind": "source.lang.swift.decl.var.instance",
      "warning": "undocumented"
    },
    {
      "file": "/Users/ci_user/builds/ewm3veLb/0/geopagos/apps/libraries/transaction-sdk-ios/ClientSDK/ClientSDK/Device/Device.swift",
      "line": 24,
      "symbol": "Device.strength",
      "symbol_kind": "source.lang.swift.decl.var.instance",
      "warning": "undocumented"
    },
    {
      "file": "/Users/ci_user/builds/ewm3veLb/0/geopagos/apps/libraries/transaction-sdk-ios/ClientSDK/ClientSDK/Device/Device.swift",
      "line": 33,
      "symbol": "NormalDevice.device",
      "symbol_kind": "source.lang.swift.decl.var.instance",
      "warning": "undocumented"
    },
    {
      "file": "/Users/ci_user/builds/ewm3veLb/0/geopagos/apps/libraries/transaction-sdk-ios/ClientSDK/ClientSDK/Device/Device.swift",
      "line": 35,
      "symbol": "NormalDevice.id",
      "symbol_kind": "source.lang.swift.decl.var.instance",
      "warning": "undocumented"
    },
    {
      "file": "/Users/ci_user/builds/ewm3veLb/0/geopagos/apps/libraries/transaction-sdk-ios/ClientSDK/ClientSDK/Device/Device.swift",
      "line": 38,
      "symbol": "NormalDevice.name",
      "symbol_kind": "source.lang.swift.decl.var.instance",
      "warning": "undocumented"
    },
    {
      "file": "/Users/ci_user/builds/ewm3veLb/0/geopagos/apps/libraries/transaction-sdk-ios/ClientSDK/ClientSDK/Device/Device.swift",
      "line": 41,
      "symbol": "NormalDevice.type",
      "symbol_kind": "source.lang.swift.decl.var.instance",
      "warning": "undocumented"
    },
    {
      "file": "/Users/ci_user/builds/ewm3veLb/0/geopagos/apps/libraries/transaction-sdk-ios/ClientSDK/ClientSDK/Device/Device.swift",
      "line": 44,
      "symbol": "NormalDevice.strength",
      "symbol_kind": "source.lang.swift.decl.var.instance",
      "warning": "undocumented"
    },
    {
      "file": "/Users/ci_user/builds/ewm3veLb/0/geopagos/apps/libraries/transaction-sdk-ios/ClientSDK/ClientSDK/Device/Device.swift",
      "line": 57,
      "symbol": "QposMiniFirmwareRestoreDevice.device",
      "symbol_kind": "source.lang.swift.decl.var.instance",
      "warning": "undocumented"
    },
    {
      "file": "/Users/ci_user/builds/ewm3veLb/0/geopagos/apps/libraries/transaction-sdk-ios/ClientSDK/ClientSDK/Device/Device.swift",
      "line": 60,
      "symbol": "QposMiniFirmwareRestoreDevice.id",
      "symbol_kind": "source.lang.swift.decl.var.instance",
      "warning": "undocumented"
    },
    {
      "file": "/Users/ci_user/builds/ewm3veLb/0/geopagos/apps/libraries/transaction-sdk-ios/ClientSDK/ClientSDK/Device/Device.swift",
      "line": 63,
      "symbol": "QposMiniFirmwareRestoreDevice.name",
      "symbol_kind": "source.lang.swift.decl.var.instance",
      "warning": "undocumented"
    },
    {
      "file": "/Users/ci_user/builds/ewm3veLb/0/geopagos/apps/libraries/transaction-sdk-ios/ClientSDK/ClientSDK/Device/Device.swift",
      "line": 66,
      "symbol": "QposMiniFirmwareRestoreDevice.type",
      "symbol_kind": "source.lang.swift.decl.var.instance",
      "warning": "undocumented"
    },
    {
      "file": "/Users/ci_user/builds/ewm3veLb/0/geopagos/apps/libraries/transaction-sdk-ios/ClientSDK/ClientSDK/Device/Device.swift",
      "line": 69,
      "symbol": "QposMiniFirmwareRestoreDevice.strength",
      "symbol_kind": "source.lang.swift.decl.var.instance",
      "warning": "undocumented"
    },
    {
      "file": "/Users/ci_user/builds/ewm3veLb/0/geopagos/apps/libraries/transaction-sdk-ios/ClientSDK/ClientSDK/Device/Device.swift",
      "line": 90,
      "symbol": "DeviceType.qpos",
      "symbol_kind": "source.lang.swift.decl.enumelement",
      "warning": "undocumented"
    },
    {
      "file": "/Users/ci_user/builds/ewm3veLb/0/geopagos/apps/libraries/transaction-sdk-ios/ClientSDK/ClientSDK/Device/Device.swift",
      "line": 91,
      "symbol": "DeviceType.magicPos",
      "symbol_kind": "source.lang.swift.decl.enumelement",
      "warning": "undocumented"
    },
    {
      "file": "/Users/ci_user/builds/ewm3veLb/0/geopagos/apps/libraries/transaction-sdk-ios/ClientSDK/ClientSDK/Device/Device.swift",
      "line": 92,
      "symbol": "DeviceType.unknown",
      "symbol_kind": "source.lang.swift.decl.enumelement",
      "warning": "undocumented"
    },
    {
      "file": "/Users/ci_user/builds/ewm3veLb/0/geopagos/apps/libraries/transaction-sdk-ios/ClientSDK/ClientSDK/Device/DeviceConfigurationBuilder.swift",
      "line": 11,
      "symbol": "DeviceConfigurationBuilder",
      "symbol_kind": "source.lang.swift.decl.class",
      "warning": "undocumented"
    },
    {
      "file": "/Users/ci_user/builds/ewm3veLb/0/geopagos/apps/libraries/transaction-sdk-ios/ClientSDK/ClientSDK/Device/DeviceConfigurationBuilder.swift",
      "line": 14,
      "symbol": "DeviceConfigurationBuilder.init()",
      "symbol_kind": "source.lang.swift.decl.function.method.instance",
      "warning": "undocumented"
    },
    {
      "file": "/Users/ci_user/builds/ewm3veLb/0/geopagos/apps/libraries/transaction-sdk-ios/ClientSDK/ClientSDK/Device/DeviceConfigurationBuilder.swift",
      "line": 36,
      "symbol": "DeviceConfigurationBuilder.build()",
      "symbol_kind": "source.lang.swift.decl.function.method.instance",
      "warning": "undocumented"
    },
    {
      "file": "/Users/ci_user/builds/ewm3veLb/0/geopagos/apps/libraries/transaction-sdk-ios/ClientSDK/ClientSDK/Device/DeviceConfigurator.swift",
      "line": 11,
      "symbol": "DeviceConfigurator",
      "symbol_kind": "source.lang.swift.decl.class",
      "warning": "undocumented"
    },
    {
      "file": "/Users/ci_user/builds/ewm3veLb/0/geopagos/apps/libraries/transaction-sdk-ios/ClientSDK/ClientSDK/Device/DeviceConfigurator.swift",
      "line": 36,
      "symbol": "DeviceConfiguratorError.deviceNotAllow(_:)",
      "symbol_kind": "source.lang.swift.decl.enumelement",
      "warning": "undocumented"
    },
    {
      "file": "/Users/ci_user/builds/ewm3veLb/0/geopagos/apps/libraries/transaction-sdk-ios/ClientSDK/ClientSDK/Device/DeviceScanService.swift",
      "line": 11,
      "symbol": "DeviceResultCallback",
      "symbol_kind": "source.lang.swift.decl.typealias",
      "warning": "undocumented"
    },
    {
      "file": "/Users/ci_user/builds/ewm3veLb/0/geopagos/apps/libraries/transaction-sdk-ios/ClientSDK/ClientSDK/Device/DeviceScanService.swift",
      "line": 77,
      "symbol": "DeviceResult",
      "symbol_kind": "source.lang.swift.decl.enum",
      "warning": "undocumented"
    },
    {
      "file": "/Users/ci_user/builds/ewm3veLb/0/geopagos/apps/libraries/transaction-sdk-ios/ClientSDK/ClientSDK/Device/DeviceScanService.swift",
      "line": 78,
      "symbol": "DeviceResult.success(list:isScanning:)",
      "symbol_kind": "source.lang.swift.decl.enumelement",
      "warning": "undocumented"
    },
    {
      "file": "/Users/ci_user/builds/ewm3veLb/0/geopagos/apps/libraries/transaction-sdk-ios/ClientSDK/ClientSDK/Device/DeviceScanService.swift",
      "line": 79,
      "symbol": "DeviceResult.error(type:isScanning:)",
      "symbol_kind": "source.lang.swift.decl.enumelement",
      "warning": "undocumented"
    },
    {
      "file": "/Users/ci_user/builds/ewm3veLb/0/geopagos/apps/libraries/transaction-sdk-ios/ClientSDK/ClientSDK/Device/DeviceScanService.swift",
      "line": 82,
      "symbol": "DeviceResultErrorType",
      "symbol_kind": "source.lang.swift.decl.enum",
      "warning": "undocumented"
    },
    {
      "file": "/Users/ci_user/builds/ewm3veLb/0/geopagos/apps/libraries/transaction-sdk-ios/ClientSDK/ClientSDK/Device/DeviceScanService.swift",
      "line": 83,
      "symbol": "DeviceResultErrorType.permissionError",
      "symbol_kind": "source.lang.swift.decl.enumelement",
      "warning": "undocumented"
    },
    {
      "file": "/Users/ci_user/builds/ewm3veLb/0/geopagos/apps/libraries/transaction-sdk-ios/ClientSDK/ClientSDK/Device/DeviceScanService.swift",
      "line": 84,
      "symbol": "DeviceResultErrorType.nothingFound",
      "symbol_kind": "source.lang.swift.decl.enumelement",
      "warning": "undocumented"
    },
    {
      "file": "/Users/ci_user/builds/ewm3veLb/0/geopagos/apps/libraries/transaction-sdk-ios/ClientSDK/ClientSDK/Device/DeviceScanService.swift",
      "line": 85,
      "symbol": "DeviceResultErrorType.hardwareError",
      "symbol_kind": "source.lang.swift.decl.enumelement",
      "warning": "undocumented"
    },
    {
      "file": "/Users/ci_user/builds/ewm3veLb/0/geopagos/apps/libraries/transaction-sdk-ios/ClientSDK/ClientSDK/Reader/ReaderState.swift",
      "line": 27,
      "symbol": "ReaderState.Connected",
      "symbol_kind": "source.lang.swift.decl.enum",
      "warning": "undocumented"
    },
    {
      "file": "/Users/ci_user/builds/ewm3veLb/0/geopagos/apps/libraries/transaction-sdk-ios/ClientSDK/ClientSDK/Transaction/TransactionCard.swift",
      "line": 11,
      "symbol": "TransactionCard",
      "symbol_kind": "source.lang.swift.decl.enum",
      "warning": "undocumented"
    },
    {
      "file": "/Users/ci_user/builds/ewm3veLb/0/geopagos/apps/libraries/transaction-sdk-ios/ClientSDK/ClientSDK/Transaction/TransactionCard.swift",
      "line": 12,
      "symbol": "TransactionCard.magnetic(_:)",
      "symbol_kind": "source.lang.swift.decl.enumelement",
      "warning": "undocumented"
    },
    {
      "file": "/Users/ci_user/builds/ewm3veLb/0/geopagos/apps/libraries/transaction-sdk-ios/ClientSDK/ClientSDK/Transaction/TransactionCard.swift",
      "line": 13,
      "symbol": "TransactionCard.emv(_:)",
      "symbol_kind": "source.lang.swift.decl.enumelement",
      "warning": "undocumented"
    },
    {
      "file": "/Users/ci_user/builds/ewm3veLb/0/geopagos/apps/libraries/transaction-sdk-ios/ClientSDK/ClientSDK/Transaction/TransactionCard.swift",
      "line": 25,
      "symbol": "Card",
      "symbol_kind": "source.lang.swift.decl.class",
      "warning": "undocumented"
    },
    {
      "file": "/Users/ci_user/builds/ewm3veLb/0/geopagos/apps/libraries/transaction-sdk-ios/ClientSDK/ClientSDK/Transaction/TransactionCard.swift",
      "line": 26,
      "symbol": "Card.maskedPan",
      "symbol_kind": "source.lang.swift.decl.var.instance",
      "warning": "undocumented"
    },
    {
      "file": "/Users/ci_user/builds/ewm3veLb/0/geopagos/apps/libraries/transaction-sdk-ios/ClientSDK/ClientSDK/Transaction/TransactionCard.swift",
      "line": 27,
      "symbol": "Card.cardHolderName",
      "symbol_kind": "source.lang.swift.decl.var.instance",
      "warning": "undocumented"
    },
    {
      "file": "/Users/ci_user/builds/ewm3veLb/0/geopagos/apps/libraries/transaction-sdk-ios/ClientSDK/ClientSDK/Transaction/TransactionCard.swift",
      "line": 28,
      "symbol": "Card.readMode",
      "symbol_kind": "source.lang.swift.decl.var.instance",
      "warning": "undocumented"
    },
    {
      "file": "/Users/ci_user/builds/ewm3veLb/0/geopagos/apps/libraries/transaction-sdk-ios/ClientSDK/ClientSDK/Transaction/TransactionCard.swift",
      "line": 37,
      "symbol": "MagneticCard",
      "symbol_kind": "source.lang.swift.decl.class",
      "warning": "undocumented"
    },
    {
      "file": "/Users/ci_user/builds/ewm3veLb/0/geopagos/apps/libraries/transaction-sdk-ios/ClientSDK/ClientSDK/Transaction/TransactionCard.swift",
      "line": 38,
      "symbol": "MagneticCard.serviceCode",
      "symbol_kind": "source.lang.swift.decl.var.instance",
      "warning": "undocumented"
    },
    {
      "file": "/Users/ci_user/builds/ewm3veLb/0/geopagos/apps/libraries/transaction-sdk-ios/ClientSDK/ClientSDK/Transaction/TransactionCard.swift",
      "line": 39,
      "symbol": "MagneticCard.needPin",
      "symbol_kind": "source.lang.swift.decl.var.instance",
      "warning": "undocumented"
    },
    {
      "file": "/Users/ci_user/builds/ewm3veLb/0/geopagos/apps/libraries/transaction-sdk-ios/ClientSDK/ClientSDK/Transaction/TransactionCard.swift",
      "line": 40,
      "symbol": "MagneticCard.hasChip",
      "symbol_kind": "source.lang.swift.decl.var.instance",
      "warning": "undocumented"
    },
    {
      "file": "/Users/ci_user/builds/ewm3veLb/0/geopagos/apps/libraries/transaction-sdk-ios/ClientSDK/ClientSDK/Transaction/TransactionCard.swift",
      "line": 50,
      "symbol": "EmvCard",
      "symbol_kind": "source.lang.swift.decl.class",
      "warning": "undocumented"
    },
    {
      "file": "/Users/ci_user/builds/ewm3veLb/0/geopagos/apps/libraries/transaction-sdk-ios/ClientSDK/ClientSDK/Transaction/TransactionCard.swift",
      "line": 51,
      "symbol": "EmvCard.emvApp",
      "symbol_kind": "source.lang.swift.decl.var.instance",
      "warning": "undocumented"
    },
    {
      "file": "/Users/ci_user/builds/ewm3veLb/0/geopagos/apps/libraries/transaction-sdk-ios/ClientSDK/ClientSDK/Transaction/TransactionCard.swift",
      "line": 52,
      "symbol": "EmvCard.cvmResult",
      "symbol_kind": "source.lang.swift.decl.var.instance",
      "warning": "undocumented"
    },
    {
      "file": "/Users/ci_user/builds/ewm3veLb/0/geopagos/apps/libraries/transaction-sdk-ios/ClientSDK/ClientSDK/Transaction/TransactionCard.swift",
      "line": 61,
      "symbol": "CvmResult",
      "symbol_kind": "source.lang.swift.decl.enum",
      "warning": "undocumented"
    },
    {
      "file": "/Users/ci_user/builds/ewm3veLb/0/geopagos/apps/libraries/transaction-sdk-ios/ClientSDK/ClientSDK/Transaction/TransactionCard.swift",
      "line": 62,
      "symbol": "CvmResult.noCvm",
      "symbol_kind": "source.lang.swift.decl.enumelement",
      "warning": "undocumented"
    },
    {
      "file": "/Users/ci_user/builds/ewm3veLb/0/geopagos/apps/libraries/transaction-sdk-ios/ClientSDK/ClientSDK/Transaction/TransactionCard.swift",
      "line": 62,
      "symbol": "CvmResult.pin",
      "symbol_kind": "source.lang.swift.decl.enumelement",
      "warning": "undocumented"
    },
    {
      "file": "/Users/ci_user/builds/ewm3veLb/0/geopagos/apps/libraries/transaction-sdk-ios/ClientSDK/ClientSDK/Transaction/TransactionCard.swift",
      "line": 62,
      "symbol": "CvmResult.signature",
      "symbol_kind": "source.lang.swift.decl.enumelement",
      "warning": "undocumented"
    },
    {
      "file": "/Users/ci_user/builds/ewm3veLb/0/geopagos/apps/libraries/transaction-sdk-ios/ClientSDK/ClientSDK/Transaction/TransactionCard.swift",
      "line": 62,
      "symbol": "CvmResult.unknown",
      "symbol_kind": "source.lang.swift.decl.enumelement",
      "warning": "undocumented"
    },
    {
      "file": "/Users/ci_user/builds/ewm3veLb/0/geopagos/apps/libraries/transaction-sdk-ios/ClientSDK/ClientSDK/Transaction/TransactionIntent.swift",
      "line": 11,
      "symbol": "CannotAbortException",
      "symbol_kind": "source.lang.swift.decl.enum",
      "warning": "undocumented"
    },
    {
      "file": "/Users/ci_user/builds/ewm3veLb/0/geopagos/apps/libraries/transaction-sdk-ios/ClientSDK/ClientSDK/Transaction/TransactionIntent.swift",
      "line": 12,
      "symbol": "CannotAbortException.cannotAbort(message:)",
      "symbol_kind": "source.lang.swift.decl.enumelement",
      "warning": "undocumented"
    },
    {
      "file": "/Users/ci_user/builds/ewm3veLb/0/geopagos/apps/libraries/transaction-sdk-ios/ClientSDK/ClientSDK/Transaction/TransactionIntent.swift",
      "line": 880,
      "symbol": "TransactionIntent.pinRequired(card:)",
      "symbol_kind": "source.lang.swift.decl.function.method.instance",
      "warning": "undocumented"
    },
    {
      "file": "/Users/ci_user/builds/ewm3veLb/0/geopagos/apps/libraries/transaction-sdk-ios/ClientSDK/ClientSDK/Transaction/TransactionIntentData.swift",
      "line": 111,
      "symbol": "TransactionApproved.sale(_:_:_:)",
      "symbol_kind": "source.lang.swift.decl.enumelement",
      "warning": "undocumented"
    },
    {
      "file": "/Users/ci_user/builds/ewm3veLb/0/geopagos/apps/libraries/transaction-sdk-ios/ClientSDK/ClientSDK/Transaction/TransactionIntentData.swift",
      "line": 112,
      "symbol": "TransactionApproved.refund(_:_:_:)",
      "symbol_kind": "source.lang.swift.decl.enumelement",
      "warning": "undocumented"
    },
    {
      "file": "/Users/ci_user/builds/ewm3veLb/0/geopagos/apps/libraries/transaction-sdk-ios/ClientSDK/ClientSDK/Transaction/TransactionIntentData.swift",
      "line": 113,
      "symbol": "TransactionApproved.cancel(_:_:_:)",
      "symbol_kind": "source.lang.swift.decl.enumelement",
      "warning": "undocumented"
    },
    {
      "file": "/Users/ci_user/builds/ewm3veLb/0/geopagos/apps/libraries/transaction-sdk-ios/ClientSDK/ClientSDK/Transaction/TransactionIntentData.swift",
      "line": 118,
      "symbol": "PaymentData.authCode",
      "symbol_kind": "source.lang.swift.decl.var.instance",
      "warning": "undocumented"
    },
    {
      "file": "/Users/ci_user/builds/ewm3veLb/0/geopagos/apps/libraries/transaction-sdk-ios/ClientSDK/ClientSDK/Transaction/TransactionIntentData.swift",
      "line": 225,
      "symbol": "EstablishmentType.endMerchant",
      "symbol_kind": "source.lang.swift.decl.enumelement",
      "warning": "undocumented"
    },
    {
      "file": "/Users/ci_user/builds/ewm3veLb/0/geopagos/apps/libraries/transaction-sdk-ios/ClientSDK/ClientSDK/Transaction/TransactionIntentData.swift",
      "line": 226,
      "symbol": "EstablishmentType.intermediary",
      "symbol_kind": "source.lang.swift.decl.enumelement",
      "warning": "undocumented"
    },
    {
      "file": "/Users/ci_user/builds/ewm3veLb/0/geopagos/apps/libraries/transaction-sdk-ios/ClientSDK/ClientSDK/Transaction/TransactionIntentData.swift",
      "line": 267,
      "symbol": "MoneyError.moneyInvalid(_:)",
      "symbol_kind": "source.lang.swift.decl.enumelement",
      "warning": "undocumented"
    },
    {
      "file": "/Users/ci_user/builds/ewm3veLb/0/geopagos/apps/libraries/transaction-sdk-ios/ClientSDK/ClientSDK/Transaction/TransactionIntentData.swift",
      "line": 276,
      "symbol": "Currency.ars",
      "symbol_kind": "source.lang.swift.decl.var.static",
      "warning": "undocumented"
    },
    {
      "file": "/Users/ci_user/builds/ewm3veLb/0/geopagos/apps/libraries/transaction-sdk-ios/ClientSDK/ClientSDK/Transaction/TransactionIntentData.swift",
      "line": 277,
      "symbol": "Currency.usd",
      "symbol_kind": "source.lang.swift.decl.var.static",
      "warning": "undocumented"
    },
    {
      "file": "/Users/ci_user/builds/ewm3veLb/0/geopagos/apps/libraries/transaction-sdk-ios/ClientSDK/ClientSDK/Transaction/TransactionIntentData.swift",
      "line": 278,
      "symbol": "Currency.mxn",
      "symbol_kind": "source.lang.swift.decl.var.static",
      "warning": "undocumented"
    },
    {
      "file": "/Users/ci_user/builds/ewm3veLb/0/geopagos/apps/libraries/transaction-sdk-ios/ClientSDK/ClientSDK/Transaction/TransactionIntentData.swift",
      "line": 279,
      "symbol": "Currency.cop",
      "symbol_kind": "source.lang.swift.decl.var.static",
      "warning": "undocumented"
    },
    {
      "file": "/Users/ci_user/builds/ewm3veLb/0/geopagos/apps/libraries/transaction-sdk-ios/ClientSDK/ClientSDK/Transaction/TransactionIntentData.swift",
      "line": 304,
      "symbol": "Exponent.zero",
      "symbol_kind": "source.lang.swift.decl.enumelement",
      "warning": "undocumented"
    },
    {
      "file": "/Users/ci_user/builds/ewm3veLb/0/geopagos/apps/libraries/transaction-sdk-ios/ClientSDK/ClientSDK/Transaction/TransactionIntentData.swift",
      "line": 305,
      "symbol": "Exponent.two",
      "symbol_kind": "source.lang.swift.decl.enumelement",
      "warning": "undocumented"
    },
    {
      "file": "/Users/ci_user/builds/ewm3veLb/0/geopagos/apps/libraries/transaction-sdk-ios/ClientSDK/ClientSDK/Transaction/TransactionIntentData.swift",
      "line": 326,
      "symbol": "Taxes.total",
      "symbol_kind": "source.lang.swift.decl.var.instance",
      "warning": "undocumented"
    },
    {
      "file": "/Users/ci_user/builds/ewm3veLb/0/geopagos/apps/libraries/transaction-sdk-ios/ClientSDK/ClientSDK/Transaction/TransactionIntentData.swift",
      "line": 329,
      "symbol": "Taxes.currency",
      "symbol_kind": "source.lang.swift.decl.var.instance",
      "warning": "undocumented"
    },
    {
      "file": "/Users/ci_user/builds/ewm3veLb/0/geopagos/apps/libraries/transaction-sdk-ios/ClientSDK/ClientSDK/Transaction/TransactionIntentData.swift",
      "line": 336,
      "symbol": "BreakDownTaxes.total",
      "symbol_kind": "source.lang.swift.decl.var.instance",
      "warning": "undocumented"
    },
    {
      "file": "/Users/ci_user/builds/ewm3veLb/0/geopagos/apps/libraries/transaction-sdk-ios/ClientSDK/ClientSDK/Transaction/TransactionIntentData.swift",
      "line": 343,
      "symbol": "BreakDownTaxes.currency",
      "symbol_kind": "source.lang.swift.decl.var.instance",
      "warning": "undocumented"
    },
    {
      "file": "/Users/ci_user/builds/ewm3veLb/0/geopagos/apps/libraries/transaction-sdk-ios/ClientSDK/ClientSDK/Transaction/TransactionIntentData.swift",
      "line": 371,
      "symbol": "TotalTaxes.total",
      "symbol_kind": "source.lang.swift.decl.var.instance",
      "warning": "undocumented"
    },
    {
      "file": "/Users/ci_user/builds/ewm3veLb/0/geopagos/apps/libraries/transaction-sdk-ios/ClientSDK/ClientSDK/Transaction/TransactionIntentData.swift",
      "line": 374,
      "symbol": "TotalTaxes.currency",
      "symbol_kind": "source.lang.swift.decl.var.instance",
      "warning": "undocumented"
    },
    {
      "file": "/Users/ci_user/builds/ewm3veLb/0/geopagos/apps/libraries/transaction-sdk-ios/ClientSDK/ClientSDK/Transaction/TransactionIntentData.swift",
      "line": 407,
      "symbol": "TransactionTotal.total",
      "symbol_kind": "source.lang.swift.decl.var.instance",
      "warning": "undocumented"
    },
    {
      "file": "/Users/ci_user/builds/ewm3veLb/0/geopagos/apps/libraries/transaction-sdk-ios/ClientSDK/ClientSDK/Transaction/TransactionIntentData.swift",
      "line": 438,
      "symbol": "TransactionSDK.Exponent.init(exponent:)",
      "symbol_kind": "source.lang.swift.decl.function.method.instance",
      "warning": "undocumented"
    },
    {
      "file": "/Users/ci_user/builds/ewm3veLb/0/geopagos/apps/libraries/transaction-sdk-ios/ClientSDK/ClientSDK/Transaction/TransactionIntentData.swift",
      "line": 451,
      "symbol": "CardType.credit",
      "symbol_kind": "source.lang.swift.decl.enumelement",
      "warning": "undocumented"
    },
    {
      "file": "/Users/ci_user/builds/ewm3veLb/0/geopagos/apps/libraries/transaction-sdk-ios/ClientSDK/ClientSDK/Transaction/TransactionIntentData.swift",
      "line": 452,
      "symbol": "CardType.debit",
      "symbol_kind": "source.lang.swift.decl.enumelement",
      "warning": "undocumented"
    },
    {
      "file": "/Users/ci_user/builds/ewm3veLb/0/geopagos/apps/libraries/transaction-sdk-ios/ClientSDK/ClientSDK/Transaction/TransactionIntentData.swift",
      "line": 457,
      "symbol": "AccountType.savingAccount",
      "symbol_kind": "source.lang.swift.decl.enumelement",
      "warning": "undocumented"
    },
    {
      "file": "/Users/ci_user/builds/ewm3veLb/0/geopagos/apps/libraries/transaction-sdk-ios/ClientSDK/ClientSDK/Transaction/TransactionIntentData.swift",
      "line": 458,
      "symbol": "AccountType.transactionAccount",
      "symbol_kind": "source.lang.swift.decl.enumelement",
      "warning": "undocumented"
    },
    {
      "file": "/Users/ci_user/builds/ewm3veLb/0/geopagos/apps/libraries/transaction-sdk-ios/ClientSDK/ClientSDK/Transaction/TransactionIntentDelegate.swift",
      "line": 11,
      "symbol": "DeviceRequiredCallback",
      "symbol_kind": "source.lang.swift.decl.typealias",
      "warning": "undocumented"
    },
    {
      "file": "/Users/ci_user/builds/ewm3veLb/0/geopagos/apps/libraries/transaction-sdk-ios/ClientSDK/ClientSDK/Transaction/TransactionIntentDelegate.swift",
      "line": 12,
      "symbol": "ConfigRequiredCallback",
      "symbol_kind": "source.lang.swift.decl.typealias",
      "warning": "undocumented"
    },
    {
      "file": "/Users/ci_user/builds/ewm3veLb/0/geopagos/apps/libraries/transaction-sdk-ios/ClientSDK/ClientSDK/Transaction/TransactionIntentDelegate.swift",
      "line": 13,
      "symbol": "EMVAppRequiredCallback",
      "symbol_kind": "source.lang.swift.decl.typealias",
      "warning": "undocumented"
    },
    {
      "file": "/Users/ci_user/builds/ewm3veLb/0/geopagos/apps/libraries/transaction-sdk-ios/ClientSDK/ClientSDK/Transaction/TransactionIntentDelegate.swift",
      "line": 14,
      "symbol": "RejectRecoverCallback",
      "symbol_kind": "source.lang.swift.decl.typealias",
      "warning": "undocumented"
    },
    {
      "file": "/Users/ci_user/builds/ewm3veLb/0/geopagos/apps/libraries/transaction-sdk-ios/ClientSDK/ClientSDK/Transaction/TransactionIntentDelegate.swift",
      "line": 15,
      "symbol": "ConfirmCardDataCallback",
      "symbol_kind": "source.lang.swift.decl.typealias",
      "warning": "undocumented"
    },
    {
      "file": "/Users/ci_user/builds/ewm3veLb/0/geopagos/apps/libraries/transaction-sdk-ios/ClientSDK/ClientSDK/Transaction/TransactionIntentDelegate.swift",
      "line": 16,
      "symbol": "ConfirmPaymentDataCallback",
      "symbol_kind": "source.lang.swift.decl.typealias",
      "warning": "undocumented"
    },
    {
      "file": "/Users/ci_user/builds/ewm3veLb/0/geopagos/apps/libraries/transaction-sdk-ios/ClientSDK/ClientSDK/Transaction/TransactionIntentDelegate.swift",
      "line": 17,
      "symbol": "ConfirmRefundDataCallback",
      "symbol_kind": "source.lang.swift.decl.typealias",
      "warning": "undocumented"
    },
    {
      "file": "/Users/ci_user/builds/ewm3veLb/0/geopagos/apps/libraries/transaction-sdk-ios/ClientSDK/ClientSDK/Transaction/TransactionIntentDelegate.swift",
      "line": 18,
      "symbol": "ConfirmCancelDataCallback",
      "symbol_kind": "source.lang.swift.decl.typealias",
      "warning": "undocumented"
    },
    {
      "file": "/Users/ci_user/builds/ewm3veLb/0/geopagos/apps/libraries/transaction-sdk-ios/ClientSDK/ClientSDK/Transaction/TransactionIntentError.swift",
      "line": 115,
      "symbol": "TransactionIntentInitializationError.missingInitialization(_:)",
      "symbol_kind": "source.lang.swift.decl.enumelement",
      "warning": "undocumented"
    },
    {
      "file": "/Users/ci_user/builds/ewm3veLb/0/geopagos/apps/libraries/transaction-sdk-ios/ClientSDK/ClientSDK/Transaction/TransactionIntentFactory.swift",
      "line": 11,
      "symbol": "TransactionIntentFactory",
      "symbol_kind": "source.lang.swift.decl.class",
      "warning": "undocumented"
    },
    {
      "file": "/Users/ci_user/builds/ewm3veLb/0/geopagos/apps/libraries/transaction-sdk-ios/ClientSDK/ClientSDK/Transaction/TransactionType.swift",
      "line": 9,
      "symbol": "TransactionType",
      "symbol_kind": "source.lang.swift.decl.enum",
      "warning": "undocumented"
    },
    {
      "file": "/Users/ci_user/builds/ewm3veLb/0/geopagos/apps/libraries/transaction-sdk-ios/ClientSDK/ClientSDK/Transaction/TransactionType.swift",
      "line": 10,
      "symbol": "TransactionType.payment",
      "symbol_kind": "source.lang.swift.decl.enumelement",
      "warning": "undocumented"
    },
    {
      "file": "/Users/ci_user/builds/ewm3veLb/0/geopagos/apps/libraries/transaction-sdk-ios/ClientSDK/ClientSDK/Transaction/TransactionType.swift",
      "line": 11,
      "symbol": "TransactionType.refund",
      "symbol_kind": "source.lang.swift.decl.enumelement",
      "warning": "undocumented"
    },
    {
      "file": "/Users/ci_user/builds/ewm3veLb/0/geopagos/apps/libraries/transaction-sdk-ios/ClientSDK/ClientSDK/Transaction/TransactionType.swift",
      "line": 12,
      "symbol": "TransactionType.cancel",
      "symbol_kind": "source.lang.swift.decl.enumelement",
      "warning": "undocumented"
    },
    {
      "file": "/Users/ci_user/builds/ewm3veLb/0/geopagos/apps/libraries/transaction-sdk-ios/ClientSDK/Payments/APIGateway+MPosTransaction.swift",
      "line": 12,
      "symbol": "APIGateway.init(config:)",
      "symbol_kind": "source.lang.swift.decl.function.method.instance",
      "warning": "undocumented"
    },
    {
      "file": "/Users/ci_user/builds/ewm3veLb/0/geopagos/apps/libraries/transaction-sdk-ios/ClientSDK/Payments/SDKLogger.swift",
      "line": 29,
      "symbol": "LogLevel",
      "symbol_kind": "source.lang.swift.decl.enum",
      "warning": "undocumented"
    },
    {
      "file": "/Users/ci_user/builds/ewm3veLb/0/geopagos/apps/libraries/transaction-sdk-ios/ClientSDK/Payments/SDKLogger.swift",
      "line": 30,
      "symbol": "LogLevel.debug",
      "symbol_kind": "source.lang.swift.decl.enumelement",
      "warning": "undocumented"
    },
    {
      "file": "/Users/ci_user/builds/ewm3veLb/0/geopagos/apps/libraries/transaction-sdk-ios/ClientSDK/Payments/SDKLogger.swift",
      "line": 30,
      "symbol": "LogLevel.error",
      "symbol_kind": "source.lang.swift.decl.enumelement",
      "warning": "undocumented"
    },
    {
      "file": "/Users/ci_user/builds/ewm3veLb/0/geopagos/apps/libraries/transaction-sdk-ios/ClientSDK/Payments/SDKLogger.swift",
      "line": 30,
      "symbol": "LogLevel.fault",
      "symbol_kind": "source.lang.swift.decl.enumelement",
      "warning": "undocumented"
    },
    {
      "file": "/Users/ci_user/builds/ewm3veLb/0/geopagos/apps/libraries/transaction-sdk-ios/ClientSDK/Payments/SDKLogger.swift",
      "line": 30,
      "symbol": "LogLevel.info",
      "symbol_kind": "source.lang.swift.decl.enumelement",
      "warning": "undocumented"
    },
    {
      "file": "/Users/ci_user/builds/ewm3veLb/0/geopagos/apps/libraries/transaction-sdk-ios/ClientSDK/Payments/SDKLogger.swift",
      "line": 30,
      "symbol": "LogLevel.notice",
      "symbol_kind": "source.lang.swift.decl.enumelement",
      "warning": "undocumented"
    }
  ],
  "source_directory": "/Users/ci_user/builds/ewm3veLb/0/geopagos/apps/libraries/transaction-sdk-ios"
}